<svg width="400" height="400" viewBox="0 0 400 400" fill="none" xmlns="http://www.w3.org/2000/svg">
<path d="M304.634 353.254C304.353 351.284 304.071 349.126 303.696 347.25L302.477 341.154C297.224 315.828 291.69 289.565 292.441 263.207C292.91 246.324 296.755 234.13 305.009 223.625C327.427 195.016 335.775 156.277 327.521 120.071C319.924 86.9607 292.816 57.9772 256.797 44.5641C208.866 26.6486 143.489 25.523 103.437 76.174C94.4328 87.6173 87.4911 101.687 83.9267 115.757C80.8314 127.951 81.2065 139.769 81.4879 151.119C81.5817 154.214 81.6757 157.403 81.6757 160.592C81.7695 170.629 78.487 178.977 71.6398 185.918C67.0437 190.607 62.9168 195.673 58.9773 200.644C57.1951 202.801 55.5062 204.959 53.724 207.116L52.6924 208.429V218.091L54.7557 219.497C56.3502 220.529 58.0389 221.561 59.7272 222.593C63.2916 224.75 66.6684 226.72 69.2009 229.346C72.2025 232.441 74.453 236.756 74.453 239.383C74.453 240.414 74.3602 241.446 74.2664 242.384C73.985 246.605 73.6099 253.077 79.0502 257.111C78.9564 257.298 78.7684 257.486 78.6746 257.673C74.3599 263.489 75.2041 269.117 81.0196 273.431C88.5234 279.059 88.5228 279.059 85.0523 287.22C82.2383 293.786 82.0512 299.038 84.3962 303.259C86.6473 307.386 91.0563 309.919 97.7159 311.044C110.379 313.202 123.416 314.327 135.047 315.359C141.988 316.016 146.397 319.111 149.399 325.489C155.589 338.34 158.215 349.502 157.746 360.476C157.746 360.757 157.746 361.133 157.652 361.602L157.184 366.667H308.104L306.417 360.757C305.385 358.6 305.009 355.88 304.634 353.254ZM166.751 357.381C166.657 346.031 163.656 334.494 157.465 321.456C153.057 312.17 145.646 307.011 135.61 306.073C124.166 305.041 111.316 303.916 99.0281 301.852C96.4955 301.383 93.3067 300.539 92.2749 298.663C91.4307 297.162 91.8059 294.348 93.4004 290.69C98.7469 278.027 97.7151 274.369 86.3656 265.834C85.3338 265.083 85.1461 264.614 85.0523 264.614C85.0523 264.521 85.147 264.052 85.9912 262.926C86.4602 262.269 87.2104 261.519 88.1483 260.487C88.7111 259.924 89.3673 259.174 90.1177 258.424L95.4649 252.514L87.6789 250.826C83.0828 249.794 82.9894 248.762 83.4584 242.853C83.5522 241.728 83.6462 240.508 83.6462 239.383C83.74 233.192 79.6121 226.72 75.7663 222.78C72.3896 219.31 68.3567 216.965 64.4171 214.62C63.573 214.151 62.7286 213.588 61.8844 213.119V211.806C63.2914 210.024 64.7918 208.242 66.1988 206.459C70.2321 201.488 73.9843 196.798 78.2052 192.484C86.7408 183.854 91.0554 173.067 90.9616 160.592C90.9616 157.309 90.8688 154.12 90.775 150.931C90.3998 139.675 90.1182 129.076 92.9321 118.102C96.2151 105.158 102.499 92.401 110.753 81.9894C147.709 35.278 208.867 36.4974 253.702 53.2872C286.907 65.6686 311.763 92.1197 318.704 122.229C326.395 155.715 318.61 191.546 297.881 217.997C288.313 230.19 283.904 244.072 283.435 263.02C282.685 290.502 288.313 317.235 293.659 343.029L294.879 349.033C295.254 350.721 295.442 352.503 295.724 354.379C295.817 355.317 296.004 356.349 296.098 357.287H166.751V357.381Z" fill="#474444"/>
<path d="M203.378 213C202.526 213 201.691 212.747 200.963 212.272C195.038 208.234 189.348 203.804 183.933 199.011C179.872 200.844 175.5 201.742 171.096 201.649C170.257 201.649 169.407 201.649 168.533 201.574C154.794 200.963 141.848 194.505 132.555 183.627C113.185 158.024 116.096 123.132 116.23 121.661L116.654 117L121.015 117.158C122.371 117.209 154.513 118.609 174.157 139.701C188.786 155.404 198.442 179.688 191.242 192.516C195.897 196.557 200.759 200.315 205.802 203.777C207.562 204.948 208.387 207.229 207.825 209.368C207.263 211.508 205.449 212.99 203.378 213ZM167.59 146.731C154.615 132.803 134.342 128.713 125.328 127.547C125.301 137.433 126.795 160.141 139.791 177.332C147.399 186.058 157.919 191.197 169.048 191.618C171.252 191.757 173.466 191.657 175.652 191.323C169.293 185.133 163.393 178.422 158.005 171.249C156.402 169.099 156.726 165.959 158.728 164.238C160.733 162.52 163.656 162.868 165.259 165.017C170.928 172.527 177.182 179.503 183.956 185.871C186.194 178.013 179.856 159.903 167.586 146.731H167.59Z" fill="#474444"/>
<path d="M193.734 230.005C194.674 229.923 195.568 229.538 196.321 228.896C202.431 223.462 208.24 217.58 213.708 211.287C218.381 213.102 223.298 213.761 228.145 213.225C229.071 213.144 230.009 213.062 230.964 212.887C246.054 210.826 259.653 201.802 268.758 187.808C287.426 155.116 280.54 113.391 280.237 111.634L279.279 106.063L274.485 106.674C272.995 106.867 237.69 111.653 218.244 138.942C203.762 159.258 195.67 189.425 204.963 204.174C200.253 209.488 195.286 214.482 190.088 219.135C188.271 220.715 187.6 223.54 188.446 226.062C189.292 228.584 191.449 230.193 193.734 230.005ZM226.228 146.772C239.073 128.751 261.003 121.872 270.822 119.598C271.893 131.496 272.637 158.979 260.113 180.928C252.641 192.168 241.579 199.37 229.347 200.951C226.931 201.331 224.479 201.424 222.033 201.233C228.394 193.168 234.195 184.519 239.383 175.363C240.925 172.62 240.236 168.871 237.846 166.993C235.454 165.117 232.267 165.818 230.725 168.561C225.263 178.148 219.099 187.151 212.299 195.47C209.003 186.227 214.086 163.812 226.233 146.771L226.228 146.772Z" fill="#474444"/>
</svg>
